<?xml version="1.0" encoding="utf-8"?>
<!-- Generator: Adobe Illustrator 15.1.0, SVG Export Plug-In . SVG Version: 6.00 Build 0)  -->
<!DOCTYPE svg PUBLIC "-//W3C//DTD SVG 1.1//EN" "http://www.w3.org/Graphics/SVG/1.1/DTD/svg11.dtd">
<svg version="1.1" xmlns="http://www.w3.org/2000/svg" xmlns:xlink="http://www.w3.org/1999/xlink" x="0px" y="0px" width="200px"
	 height="200px" viewBox="0 0 200 200" enable-background="new 0 0 200 200" xml:space="preserve">
<g id="Logo">
	<g id="_x32_px_Stroke" display="none">
		<path display="inline" fill="#A9A9A9" d="M198,2v196H2V2H198 M200,0H0v200h200V0L200,0z"/>
	</g>
	<g>
		<path fill-rule="evenodd" clip-rule="evenodd" fill="#004685" d="M32.738,103.204c-0.855,0.881-1.893,1.323-3.112,1.323
			c-1.22,0-2.255-0.442-3.106-1.323c-0.852-0.884-1.278-1.985-1.278-3.312c0-1.083,0.431-2.036,1.294-2.863
			c0.864-0.825,1.894-1.237,3.09-1.237c1.188,0,2.218,0.412,3.09,1.237c0.871,0.827,1.306,1.78,1.306,2.863
			C34.022,101.219,33.594,102.32,32.738,103.204L32.738,103.204z M76.285,92.385h-4.031v5.996h-5.838v-5.996l-12.676-0.011
			l-2.078,2.182v-2.17h-4.044v8.191c0,0.854-0.044,1.521-0.136,1.997c-0.129,0.696-0.379,1.228-0.75,1.59
			c-0.432,0.425-1.052,0.637-1.863,0.637c-0.81,0-1.435-0.216-1.874-0.648c-0.364-0.355-0.61-0.886-0.739-1.59
			c-0.083-0.447-0.124-1.109-0.124-1.985v-8.191h-4.043v6.031c-0.372-1.931-1.375-3.513-3.01-4.748
			c-1.59-1.196-3.408-1.794-5.452-1.794c-2.309,0-4.304,0.745-5.986,2.236c-1.742,1.546-2.612,3.465-2.612,5.76
			c0,0.356,0.015,0.668,0.045,0.943c-0.295-0.599-0.754-1.095-1.375-1.489c-0.522-0.34-1.208-0.633-2.056-0.874l-1.034-0.307
			c-0.545-0.174-0.931-0.337-1.158-0.489c-0.417-0.265-0.625-0.598-0.625-0.999c0-0.4,0.198-0.727,0.592-0.977
			c0.333-0.212,0.71-0.318,1.135-0.318c0.485,0,0.958,0.092,1.42,0.272c0.461,0.182,0.881,0.432,1.26,0.75l1.602-3.123
			c-0.697-0.395-1.481-0.707-2.351-0.938c-0.871-0.231-1.708-0.346-2.51-0.346c-1.576,0-2.862,0.477-3.862,1.431
			c-1,0.953-1.5,2.214-1.5,3.782c0,0.969,0.174,1.746,0.522,2.329c0.31,0.515,0.799,0.942,1.465,1.283
			c0.447,0.228,1.189,0.488,2.226,0.782c0.705,0.199,1.22,0.383,1.546,0.558c0.597,0.326,0.896,0.73,0.896,1.215
			c0,0.509-0.208,0.905-0.625,1.193c-0.363,0.25-0.807,0.374-1.328,0.374c-0.637,0-1.281-0.157-1.932-0.476
			c-0.545-0.273-1.098-0.652-1.658-1.136L10,106.572c0.817,0.574,1.691,1.014,2.619,1.316c0.927,0.303,1.875,0.454,2.844,0.454
			c0.81,0,1.604-0.122,2.38-0.363c0.776-0.242,1.45-0.609,2.021-1.095c0.572-0.489,0.994-1.11,1.267-1.858
			c0.234-0.651,0.351-1.39,0.351-2.215c0.561,1.726,1.568,3.097,3.022,4.11c1.454,1.018,3.161,1.523,5.122,1.523
			c2.203,0,4.077-0.637,5.623-1.908c1.544-1.273,2.49-2.945,2.84-5.021c0,1.099,0.094,2.004,0.283,2.714
			c0.25,0.947,0.701,1.738,1.352,2.373c0.605,0.607,1.4,1.058,2.386,1.354c0.848,0.256,1.767,0.386,2.759,0.386
			c1.015,0,1.943-0.13,2.783-0.386c0.977-0.296,1.769-0.746,2.375-1.354c0.545-0.528,0.946-1.149,1.204-1.862
			c0.287-0.802,0.432-2.006,0.432-3.611v-5.315h3.453v12.119h4.043V95.814h3.226v12.119h4.032v-6.371h5.838v6.371h4.031V92.385
			L76.285,92.385z"/>
		<path fill-rule="evenodd" clip-rule="evenodd" fill="#004685" d="M131.773,95.816h-3.337v12.119h-4.045V95.816h-3.885
			l-0.352,0.568c-0.387-0.31-0.812-0.558-1.271-0.745c-0.464-0.185-0.933-0.278-1.409-0.278c-0.431,0-0.815,0.106-1.147,0.318
			c-0.395,0.25-0.591,0.576-0.591,0.977c0,0.395,0.212,0.727,0.637,0.999c0.235,0.152,0.621,0.314,1.157,0.489l1.035,0.306
			c1.226,0.356,2.138,0.827,2.737,1.409c0.734,0.711,1.101,1.658,1.101,2.839c0,0.857-0.114,1.614-0.34,2.273
			c-0.272,0.786-0.696,1.425-1.273,1.912c-0.574,0.487-1.252,0.854-2.026,1.097c-0.776,0.241-1.569,0.361-2.381,0.361
			c-0.885,0-1.743-0.122-2.578-0.367c-0.833-0.246-1.633-0.609-2.406-1.085v1.045h-9.871V94.181l-4.407,13.755H93.35l-2.408-9.008
			l-2.726,9.008h-3.749l-4.646-15.549h4.203l2.714,10.04l2.602-10.04h3.214l2.375,10.04l2.964-10.04h13.164v3.43h-5.497v2.589h4.555
			v3.419h-4.555v2.681h5.838v1.17l1.249-2.36c0.566,0.49,1.117,0.868,1.646,1.136c0.645,0.318,1.291,0.476,1.943,0.476
			c0.521,0,0.965-0.124,1.33-0.374c0.414-0.288,0.624-0.687,0.624-1.193c0-0.492-0.3-0.896-0.899-1.215
			c-0.334-0.183-0.851-0.366-1.556-0.558c-1.028-0.294-1.767-0.557-2.216-0.782c-0.665-0.343-1.153-0.769-1.464-1.283
			c-0.349-0.583-0.521-1.361-0.521-2.331c0-1.566,0.497-2.827,1.499-3.781c0.999-0.954,2.286-1.431,3.861-1.431
			c0.825,0,1.729,0.129,2.709,0.387c0.979,0.256,1.796,0.589,2.446,0.999l-0.045,0.068l1.01-1.057l8.758,0.012V95.816
			L131.773,95.816z"/>
		<path fill-rule="evenodd" clip-rule="evenodd" fill="#FCB131" d="M154.626,101.831l2.931-7.201l2.909,7.201H154.626
			L154.626,101.831z M189.734,101.781c-0.281-0.473-0.709-0.892-1.283-1.256l-2.852-1.487c-0.538-0.25-0.95-0.463-1.237-0.637
			c-0.47-0.28-0.815-0.568-1.033-0.863c-0.281-0.371-0.423-0.803-0.423-1.294c0-0.788,0.273-1.461,0.813-2.017
			c0.54-0.557,1.206-0.835,1.994-0.835c0.681,0,1.277,0.16,1.794,0.478c0.47,0.287,0.881,0.719,1.239,1.294l0.669-0.556
			c-0.356-0.643-0.863-1.154-1.521-1.534c-0.659-0.377-1.367-0.567-2.125-0.567c-1.12,0-2.036,0.353-2.749,1.055
			c-0.71,0.705-1.066,1.613-1.066,2.727c0,0.59,0.129,1.103,0.387,1.539c0.256,0.436,0.643,0.812,1.159,1.13l2.69,1.431
			c0.665,0.326,1.117,0.557,1.352,0.693c0.522,0.303,0.913,0.617,1.171,0.943c0.324,0.407,0.488,0.87,0.488,1.385
			c0,0.978-0.37,1.811-1.103,2.498c-0.734,0.689-1.597,1.033-2.579,1.033c-0.87,0-1.619-0.249-2.248-0.748
			c-0.569-0.454-1.023-1.103-1.363-1.941l-0.829,0.373c0.355,0.986,0.923,1.767,1.697,2.341c0.776,0.575,1.676,0.863,2.699,0.863
			c1.241,0,2.323-0.412,3.247-1.237c0.955-0.856,1.432-1.89,1.432-3.102C190.154,102.823,190.015,102.253,189.734,101.781
			L189.734,101.781z M180.138,92.699h-0.955v13.028l-10.881-13.221v15.128h0.955V94.801l10.881,13.322V92.699L180.138,92.699z
			 M165.939,107.635V92.701h-0.943v14.934H165.939L165.939,107.635z M157.557,92.21l-6.098,15.04l-4.623-6.691
			c1.287,0,2.308-0.324,3.064-0.976c0.803-0.689,1.205-1.662,1.205-2.919c0-0.666-0.118-1.264-0.352-1.794
			c-0.259-0.583-0.627-1.047-1.108-1.392c-0.479-0.344-1.038-0.57-1.675-0.676c-0.408-0.068-0.999-0.102-1.771-0.102h-1.862v14.936
			h0.952v-7.076h0.478l4.861,7.076h1.646l2-4.917h6.553l1.999,4.917h0.967L157.557,92.21L157.557,92.21z M143.122,92.699h-8.681
			v0.897h3.865v14.039h0.953V93.596h3.862V92.699L143.122,92.699z M149.885,97.941c-0.179,0.42-0.437,0.766-0.779,1.041
			c-0.271,0.234-0.588,0.408-0.947,0.522c-0.359,0.113-0.914,0.17-1.663,0.17h-1.206v-6.078h1.058c0.446,0,0.856,0.024,1.233,0.068
			c0.374,0.046,0.705,0.137,0.993,0.272c0.515,0.228,0.911,0.595,1.191,1.103c0.258,0.47,0.386,0.999,0.386,1.59
			C150.15,97.084,150.062,97.521,149.885,97.941L149.885,97.941z"/>
		<path fill-rule="evenodd" clip-rule="evenodd" fill="#ED1C2E" d="M167.396,89.576c0,1.057-0.857,1.915-1.914,1.915
			s-1.914-0.857-1.914-1.915c0-1.055,0.857-1.914,1.914-1.914S167.396,88.521,167.396,89.576L167.396,89.576z"/>
	</g>
</g>
<g id="Guides">
	<g>
		<g>
		</g>
		<g>
		</g>
	</g>
</g>
</svg>
